"5e2143581ca4524b2c721800",
"5e2146841ca4524b2c721803",
"5e214a1b1359c6515600b543",
"5e27cbc21ca45251286b9280",
"5e2829171359c64b58c91aea",
"5e3145ec1359c64b58c91b37",
"5e4bd6b51ca45258364a6411",
"5e2130dd1359c64b5b92d36b",
"5e21328e1359c658a318336d",
"5e2137421ca45251286b9249",
"5e214f481359c6515600b546",
"5e2155c11ca4524b2c721809",
"5e27cf0f1ca4524b2d775b39",
"5e27d6c11ca45251286b9286",
"5e28084c1ca4524b2c721846",
"5e2825301ca45258364a62b2",
"5e282d0b1359c64b5b92d3b7",
"5e2834221359c64b58c91aef",
"5e303f4e1ca4524b2c721883",
"5e303f7e1359c6515600b5b7",
"5e4a518b1ca45258364a63d6",
"5e4a538b1ca45258364a63dc",
"5e4df0021ca45258364a641a",
"5e4df46f1359c658a3183557",
"5e2125c01ca45251286b9246",
"5e212d3b1ca45258364a627e",
"5e213e701ca4524b2c7217fd",
"5e21540e1ca4524b2c721806",
"5e27d3aa1ca45251286b9283",
"5e28382c1ca4524b2d775b4a",
"5e301a171ca45251286b92e1",
"5e3024291ca4524b2c72187b",
"5e4a52791ca45258364a63d9",
"5e4bd7551ca45251286b93e6",
"5e4bd7bf1359c6515600b6b2",
"5e4e0c0c1359c64b58c91c46"